Week 1 - #rstats and #TidyTuesday Tweets from rtweet
…
Seems like quite a huge dataset, with lots of interesting variables.

I chose something simple to celebrate a new year of TidyTuesday challenges, and to congratulate with all the people involved in this project, so Ill just use the screen_name feature, which contains the Twitter handler of each contributor.

Word clouds

As just said, for this weeks dataset I decided to focus on people: lets create a word cloud with the most active people of TidyTuesday!

handlers <- df %>% 
    group_by(screen_name) %>% 
    summarise(n = n()) 
handlers

## # A tibble: 478 x 2
##    screen_name        n
##    <chr>          <int>
##  1 _LouiseRP          2
##  2 _Mindmassage       1
##  3 _raghuc            2
##  4 _RCharlie          1
##  5 _VictoriaPlace     1
##  6 adababbage         1
##  7 AdamantlyAstro     1
##  8 AdamGruer          3
##  9 AdoptionsWLove     1
## 10 aecoppock          1
## # ... with 468 more rows
…
