…
------------------------------------------------------------------------

Word clouds
-----------

As just said, for this week's dataset I decided to focus on people: let's create a word cloud with the most active people of TidyTuesday!

``` r
handlers <- df %>% 
    group_by(screen_name) %>% 
    summarise(n = n()) 
handlers
```

    ## # A tibble: 478 x 2
    ##    screen_name        n
    ##    <chr>          <int>
    ##  1 _LouiseRP          2
    ##  2 _Mindmassage       1
    ##  3 _raghuc            2
    ##  4 _RCharlie          1
    ##  5 _VictoriaPlace     1
    ##  6 adababbage         1
    ##  7 AdamantlyAstro     1
    ##  8 AdamGruer          3
    ##  9 AdoptionsWLove     1
    ## 10 aecoppock          1
    ## # ... with 468 more rows
…
