…
We might be interested in knowing whether, as the number of households with pets increases, so does the mean number of dogs/cats hosted in each household. Let's find out.

``` r
gath_df <- df %>% 
    mutate(dogs = mean_num_dogs_per_household, 
           cats = mean_num_cats_per_household) %>% 
    select(location, num_pet_households_1000, dogs, cats) %>% 
    gather(key = "pet", value = "value", dogs, cats)
```

``` r
gath_df
```

    ## # A tibble: 98 x 4
    ##    location             num_pet_households_1000 pet   value
    ##    <chr>                                  <dbl> <chr> <dbl>
    ##  1 Alabama                                 1088 dogs    1.7
    ##  2 Arizona                                 1497 dogs    1.8
    ##  3 Arkansas                                 716 dogs    2  
    ##  4 California                              6865 dogs    1.6
    ##  5 Colorado                                1217 dogs    1.6
    ##  6 Connecticut                              728 dogs    1.3
    ##  7 Delaware                                 189 dogs    1.4
    ##  8 District of Columbia                      63 dogs    1.1
    ##  9 Florida                                 4138 dogs    1.5
    ## 10 Georgia                                 2093 dogs    1.6
    ## # ... with 88 more rows
…
With these information, we can try to normalize the number of households with pets by the mean number of dogs/cats hosted.

``` r
norm_df <- df %>% 
    mutate(norm_dogs = dog_own_households_1000 * mean_num_dogs_per_household, 
           norm_cats = cat_own_households_1000 * mean_num_cats_per_household) %>% 
    select(location, norm_dogs, norm_cats, perc_households_pets)
```

``` r
norm_df
```

    ## # A tibble: 49 x 4
    ##    location             norm_dogs norm_cats perc_households_pets
    ##    <chr>                    <dbl>     <dbl>                <dbl>
    ##  1 Alabama                 1372.     1252.                  59.5
    ##  2 Arizona                 1814.     1412.                  59.5
    ##  3 Arkansas                1100       807.                  62.4
    ##  4 California              6816      7005.                  52.9
    ##  5 Colorado                1352      1220.                  61.3
    ##  6 Connecticut              493.      811.                  54.4
    ##  7 Delaware                 158.      192.                  56.6
    ##  8 District of Columbia      41.8      62.7                 21.9
    ##  9 Florida                 4077      4366.                  54.4
    ## 10 Georgia                 2435.     2178.                  55.1
    ## # ... with 39 more rows
…
