…
Everything seems to be in order.  
Let’s add another column, `date`, to obtain the proper date from the
`year`, `month` and `date_of_month` features.

``` r
df %<>% 
    mutate(date = as_date(paste(year, month, date_of_month, sep = "-")))
```

``` r
df
```

    ## # A tibble: 5,479 x 6
    ##     year month date_of_month day_of_week births date      
    ##    <dbl> <dbl>         <dbl>       <dbl>  <dbl> <date>    
    ##  1  2000     1             1           6   9083 2000-01-01
    ##  2  2000     1             2           7   8006 2000-01-02
    ##  3  2000     1             3           1  11363 2000-01-03
    ##  4  2000     1             4           2  13032 2000-01-04
    ##  5  2000     1             5           3  12558 2000-01-05
    ##  6  2000     1             6           4  12466 2000-01-06
    ##  7  2000     1             7           5  12516 2000-01-07
    ##  8  2000     1             8           6   8934 2000-01-08
    ##  9  2000     1             9           7   7949 2000-01-09
    ## 10  2000     1            10           1  11668 2000-01-10
    ## # … with 5,469 more rows
…
